module github.com/abinash393/go-cron

go 1.15

require (
	github.com/gin-gonic/gin v1.6.3
	github.com/go-playground/validator/v10 v10.4.1 // indirect
	github.com/golang/protobuf v1.4.3 // indirect
	github.com/google/uuid v1.1.2 // indirect
	github.com/joho/godotenv v1.3.0
	github.com/json-iterator/go v1.1.10 // indirect
	github.com/labstack/echo v3.3.10+incompatible
	github.com/labstack/echo/v4 v4.1.17
	github.com/modern-go/concurrent v0.0.0-20180306012644-bacd9c7ef1dd // indirect
	github.com/modern-go/reflect2 v1.0.1 // indirect
	github.com/onatm/clockwerk v0.0.0-20190910145222-354c9bd6cf28
	github.com/ugorji/go v1.1.13 // indirect
	github.com/whiteshtef/clockwork v0.0.0-20200221012748-027e62affd84
	go.mongodb.org/mongo-driver v1.4.2
	golang.org/x/crypto v0.0.0-20201016220609-9e8e0b390897 // indirect
	golang.org/x/sys v0.0.0-20201029080932-201ba4db2418 // indirect
	google.golang.org/protobuf v1.25.0 // indirect
	gopkg.in/yaml.v2 v2.3.0 // indirect
)
